"_id","name","firstname","address","restaurants","register_date","phone_number","email"
"601afbc46e6464a51d2b29e7","Leponge","Bob","{""line1"":""5 rue des pyrénées"",""city"":""Pau"",""zipcode"":""64000"",""country"":""France""}","[""60187bda0df50d156fee304b""]",,"0102030405","b.lebongoe@tataouine.loc"
"601afbc46e6464a51d2b21e4","Marvel","Rachel","{""line1"":""3 rue des alpes"",""city"":""Nice"",""zipcode"":""06000"",""country"":""France""}","[""60187bda0df50d156fee304b""]",,"0203040500","rachel.marvel@galaxy.loc"
"604a7854d5e0dc0caf8826b5","Baggins","Frodon","{""line1"":""3 rue des chamois"",""city"":""Brest"",""zipcode"":""29200"",""country"":""France""}","[""6019c2efd2f209f82f64bbe7""]",,"0203040500","f.baggins@shire.loc"
"604a7863a24b88d073ac160e","Gamegie","Sam","{""line1"":""3 rue des quais"",""city"":""Plouzané"",""zipcode"":""29280"",""country"":""France""}","[""6019c4983a3bad4c45abafec""]",,"0203040501","s.gamegie@shire.loc"
"604a786c6294febf712d2959","Kent","Clark","{""line1"":""4 rue de Krypton"",""city"":""Rennes"",""zipcode"":""35000"",""country"":""France""}","[""604a75d0e0f7822375a71208""]",,"0203040502","clark.kent@galaxy.loc"
"604a7876bc26ad3b0c55e5b0","Wayne","Bruce","{""line1"":""3 rue des "",""city"":""Nancy"",""zipcode"":""54000"",""country"":""France""}","[""6019c4983a3bad4c45abafec""]",,"0303040503","bruce.wayne@outlook.loc"
"604a78808ee11f8e86312077","Prince","Diana","{""line1"":""205 avenue du parc"",""city"":""Metz"",""zipcode"":""57000"",""country"":""France""}","[""604a75d0e0f7822375a71208""]",,"0303040506","diana.prince@outlook.loc"
